…
\##Exercise 3- Examples! Here I will look at 3 different datasets and
summarize a grouped variable by a distinct value of another variable.
This can help us answer specific questions about the dataset.

### Example: How many different types of trees are there in each neighbourhood of Vancouver?

Here I will count the number of different tree species (common_name) in
each neighbourhood (“neighbourhood_name”) of Vancouver, BC, using the
*vancouver_trees* dataset

``` r
Group_unique(vancouver_trees, neighbourhood_name, common_name)
```

    ## # A tibble: 22 × 2
    ##    neighbourhood_name       unique_variable_count
    ##    <chr>                                    <int>
    ##  1 ARBUTUS-RIDGE                              260
    ##  2 DOWNTOWN                                   168
    ##  3 DUNBAR-SOUTHLANDS                          364
    ##  4 FAIRVIEW                                   223
    ##  5 GRANDVIEW-WOODLAND                         310
    ##  6 HASTINGS-SUNRISE                           347
    ##  7 KENSINGTON-CEDAR COTTAGE                   323
    ##  8 KERRISDALE                                 284
    ##  9 KILLARNEY                                  237
    ## 10 KITSILANO                                  336
    ## # … with 12 more rows
…
